{
    "input_settings" : {
	"materials_file_name" : "element_tests/shell_elements/thin_shell_materials.json"
    },
    "problem_data" : {
        "problem_name" : "thin_triangular_shell_bending",
        "echo_level"   : 0
    },
    "time_settings" : {
        "time_step"  : 0.05,
        "start_time" : 0.0,
        "end_time"   : 0.1
    },
    "model_settings"           : {
        "model_name"           : "thin_triangular_shell_bending",
        "dimension"            : 3,
        "domain_parts_list"    : ["Parts_Parts_Auto1"],
        "processes_parts_list" : ["DISPLACEMENT_Displacement_Auto1","ROTATION_Rotation_Auto1","PointMoment3D_Moment_on_points_Auto1"],
        "input_file_settings"  : {
            "name" : "thin_triangular_shell_bending"
        }
    },
    "solver_settings"          : {
        "solver_type" : "solid_mechanics_static_solver",
        "Parameters"  : {
            "time_integration_settings" : {
		"solution_type"      : "Quasi-static",
                "analysis_type"      : "Non-linear",
		"integration_method" : "Static"
            },
            "solving_strategy_settings" : {
                "line_search"                 : false,
		"max_iteration"               : 30
	    },
	    "convergence_criterion_settings" : {
                "convergence_criterion"       : "Residual_criterion",
                "residual_relative_tolerance" : 1e-6,
                "residual_absolute_tolerance" : 1e-6
            },
	    "dofs" : ["DISPLACEMENT","ROTATION"]
        }
    },
    "constraints_process_list" : [{
        "process_module" : "SolidMechanicsApplication.assign_vector_components_to_nodes_process",
        "Parameters"    : {
            "model_part_name" : "DISPLACEMENT_Displacement_Auto1",
            "variable_name"   : "DISPLACEMENT",
            "value"           : [0.0,0.0,0.0],
            "interval"        : [0.0,"End"]
        }
    },{
        "process_module" : "SolidMechanicsApplication.assign_vector_components_to_nodes_process",
        "Parameters"    : {
            "model_part_name" : "ROTATION_Rotation_Auto1",
            "variable_name"   : "ROTATION",
            "value"           : [0.0,0.0,0.0],
            "interval"        : [0.0,"End"]
        }
    }],
    "loads_process_list"       : [{
        "process_module" : "SolidMechanicsApplication.assign_modulus_and_direction_to_conditions_process",
        "Parameters"    : {
            "model_part_name" : "PointMoment3D_Moment_on_points_Auto1",
            "variable_name"   : "MOMENT_LOAD",
            "modulus"         : "10226.538*t",
            "direction"       : [0.0,1.0,0.0],
            "interval"        : [0.0,"End"]
        }
    }],
    "_output_process_list" : [
    {
        "process_module"   : "json_output_process",
        "Parameters"      : {
            "output_variables" : ["DISPLACEMENT_X","DISPLACEMENT_REACTION_X"],
            "output_file_name" : "element_tests/shell_elements/thin_triangular_shell_bending_results.json",
            "model_part_name"  : "Parts_Parts_Auto1",
            "time_frequency"   : 0.05
        }
    }
    ],
    "check_process_list" : [
    {
        "process_module"   : "from_json_check_result_process",
        "Parameters"      : {
            "check_variables" : ["DISPLACEMENT_X","DISPLACEMENT_REACTION_X"],
            "input_file_name" : "element_tests/shell_elements/thin_triangular_shell_bending_results.json",
            "model_part_name"  : "Parts_Parts_Auto1",
            "time_frequency"   : 0.05
        }
    }
    ]
}
