{
  "material_models_list": [
    {
      "process_module": "ConstitutiveModelsApplication.assign_materials_process",
      "Parameters": {
        "model_part_name": "Domain",
        "properties_id": 1,
        "constitutive_law": {
          "name": "LargeStrainPlaneStrain2DLaw.SimoJ2ThermoPlasticityModel"
        },
        "variables": {
          "DENSITY": 7.8e3,
          "YOUNG_MODULUS": 2.069e11,
          "POISSON_RATIO": 2.9e-1,
		  "STABILIZATION_FACTOR_P": 1.0,
		  "STABILIZATION_FACTOR_J": 1.0,
          "BULK_MODULUS": 164.206349206e9,
          "C10": 4.00969e10,
          "THICKNESS": 1.0,
          "YIELD_STRESS": 4.5e8,
          "KINEMATIC_HARDENING_MODULUS": 1.2924e8,
          "HARDENING_EXPONENT": 1.693e1,
          "REFERENCE_HARDENING_MODULUS": 4.5e8,
          "INFINITY_HARDENING_MODULUS": 7.15e8,
          "REFERENCE_TEMPERATURE": 2.9315e2,
          "THERMAL_EXPANSION_COEFFICIENT": 1.0e-5,
          "THERMAL_CONDUCTIVITY": 4.5e1,
          "SPECIFIC_HEAT_CAPACITY": 4.6e2,
          "HEAT_SOURCE": 0.0,
          "YIELD_STRESS_THERMAL_SOFTENING": 1.0e-3,
          "HARDENING_THERMAL_SOFTENING": 1.0e-3
        },
        "tables": {}
      }
    }
  ],
  "_material_models_list": [
    {
      "process_module": "ConstitutiveModelsApplication.assign_materials_process",
      "Parameters": {
        "model_part_name": "Domain",
        "properties_id": 1,
        "constitutive_law": {
          "name": "KratosMultiphysics.SolidMechanicsApplication.HyperElasticPlasticThermalUPJ2PlaneStrain2DLaw"
        },
        "variables": {
          "DENSITY": 7.8e3,
          "YOUNG_MODULUS": 2.069e11,
          "POISSON_RATIO": 2.9e-1,
		  "STABILIZATION_FACTOR_P": 1.0,
		  "STABILIZATION_FACTOR_J": 1.0,
          "BULK_MODULUS": 164.206349206e9,
          "C10": 4.00969e10,
          "THICKNESS": 1.0,
          "YIELD_STRESS": 4.5e8,
          "KINEMATIC_HARDENING_MODULUS": 1.2924e8,
          "HARDENING_EXPONENT": 1.693e1,
          "REFERENCE_HARDENING_MODULUS": 4.5e8,
          "INFINITY_HARDENING_MODULUS": 7.15e8,
          "REFERENCE_TEMPERATURE": 2.9315e2,
          "THERMAL_EXPANSION_COEFFICIENT": 1.0e-5,
          "THERMAL_CONDUCTIVITY": 4.5e1,
          "SPECIFIC_HEAT_CAPACITY": 4.6e2,
          "HEAT_SOURCE": 0.0,
          "YIELD_STRESS_THERMAL_SOFTENING": 1.0e-3,
          "HARDENING_THERMAL_SOFTENING": 1.0e-3
        },
        "tables": {}
      }
    }
  ]
}
